^G:\CROSSPLATFORMSOCKETS\BULID\NETWORKING\NETWORKING.DIR\DEBUG\SOCKETADDRESS.OBJ|G:\CROSSPLATFORMSOCKETS\BULID\NETWORKING\NETWORKING.DIR\DEBUG\SOCKETADDRESSFACTORY.OBJ|G:\CROSSPLATFORMSOCKETS\BULID\NETWORKING\NETWORKING.DIR\DEBUG\SOCKETUTIL.OBJ|G:\CROSSPLATFORMSOCKETS\BULID\NETWORKING\NETWORKING.DIR\DEBUG\TCPSOCKET.OBJ|G:\CROSSPLATFORMSOCKETS\BULID\NETWORKING\NETWORKING.DIR\DEBUG\UDPSOCKET.OBJ
G:\CROSSPLATFORMSOCKETS\BULID\NETWORKING\NETWORKING.DIR\DEBUG\SOCKETADDRESS.OBJ
C:\WINDOWS\SYSTEM32\TZRES.DLL
G:\CROSSPLATFORMSOCKETS\BULID\NETWORKING\NETWORKING.DIR\DEBUG\SOCKETADDRESSFACTORY.OBJ
G:\CROSSPLATFORMSOCKETS\BULID\NETWORKING\NETWORKING.DIR\DEBUG\SOCKETUTIL.OBJ
G:\CROSSPLATFORMSOCKETS\BULID\NETWORKING\NETWORKING.DIR\DEBUG\TCPSOCKET.OBJ
G:\CROSSPLATFORMSOCKETS\BULID\NETWORKING\NETWORKING.DIR\DEBUG\UDPSOCKET.OBJ
C:\WINDOWS\GLOBALIZATION\SORTING\SORTDEFAULT.NLS
