^G:\CROSSPLATFORMSOCKETS\BULID\GOOGLETEST-DOWNLOAD\CMAKEFILES\A0B326E4051E1F16B6C3C0DAEB18C16E\GOOGLETEST-MKDIR.RULE
^G:\CROSSPLATFORMSOCKETS\BULID\GOOGLETEST-DOWNLOAD\CMAKEFILES\A0B326E4051E1F16B6C3C0DAEB18C16E\GOOGLETEST-DOWNLOAD.RULE
G:\CROSSPLATFORMSOCKETS\BULID\GOOGLETEST-DOWNLOAD\GOOGLETEST-PREFIX\SRC\GOOGLETEST-STAMP\GOOGLETEST-GITINFO.TXT
G:\CROSSPLATFORMSOCKETS\BULID\GOOGLETEST-DOWNLOAD\GOOGLETEST-PREFIX\SRC\GOOGLETEST-STAMP\DEBUG\GOOGLETEST-MKDIR
^G:\CROSSPLATFORMSOCKETS\BULID\GOOGLETEST-DOWNLOAD\CMAKEFILES\A0B326E4051E1F16B6C3C0DAEB18C16E\GOOGLETEST-PATCH.RULE
G:\CROSSPLATFORMSOCKETS\BULID\GOOGLETEST-DOWNLOAD\GOOGLETEST-PREFIX\SRC\GOOGLETEST-STAMP\DEBUG\GOOGLETEST-DOWNLOAD
^G:\CROSSPLATFORMSOCKETS\BULID\GOOGLETEST-DOWNLOAD\CMAKEFILES\A0B326E4051E1F16B6C3C0DAEB18C16E\GOOGLETEST-CONFIGURE.RULE
G:\CROSSPLATFORMSOCKETS\BULID\GOOGLETEST-DOWNLOAD\GOOGLETEST-PREFIX\TMP\GOOGLETEST-CFGCMD.TXT
G:\CROSSPLATFORMSOCKETS\BULID\GOOGLETEST-DOWNLOAD\GOOGLETEST-PREFIX\SRC\GOOGLETEST-STAMP\DEBUG\GOOGLETEST-PATCH
^G:\CROSSPLATFORMSOCKETS\BULID\GOOGLETEST-DOWNLOAD\CMAKEFILES\A0B326E4051E1F16B6C3C0DAEB18C16E\GOOGLETEST-BUILD.RULE
G:\CROSSPLATFORMSOCKETS\BULID\GOOGLETEST-DOWNLOAD\GOOGLETEST-PREFIX\SRC\GOOGLETEST-STAMP\DEBUG\GOOGLETEST-CONFIGURE
^G:\CROSSPLATFORMSOCKETS\BULID\GOOGLETEST-DOWNLOAD\CMAKEFILES\A0B326E4051E1F16B6C3C0DAEB18C16E\GOOGLETEST-INSTALL.RULE
G:\CROSSPLATFORMSOCKETS\BULID\GOOGLETEST-DOWNLOAD\GOOGLETEST-PREFIX\SRC\GOOGLETEST-STAMP\DEBUG\GOOGLETEST-BUILD
^G:\CROSSPLATFORMSOCKETS\BULID\GOOGLETEST-DOWNLOAD\CMAKEFILES\A0B326E4051E1F16B6C3C0DAEB18C16E\GOOGLETEST-TEST.RULE
G:\CROSSPLATFORMSOCKETS\BULID\GOOGLETEST-DOWNLOAD\GOOGLETEST-PREFIX\SRC\GOOGLETEST-STAMP\DEBUG\GOOGLETEST-INSTALL
^G:\CROSSPLATFORMSOCKETS\BULID\GOOGLETEST-DOWNLOAD\CMAKEFILES\2930FC6137BFD8679932CCF9EEE6930C\GOOGLETEST-COMPLETE.RULE
G:\CROSSPLATFORMSOCKETS\BULID\GOOGLETEST-DOWNLOAD\GOOGLETEST-PREFIX\SRC\GOOGLETEST-STAMP\DEBUG\GOOGLETEST-INSTALL
G:\CROSSPLATFORMSOCKETS\BULID\GOOGLETEST-DOWNLOAD\GOOGLETEST-PREFIX\SRC\GOOGLETEST-STAMP\DEBUG\GOOGLETEST-MKDIR
G:\CROSSPLATFORMSOCKETS\BULID\GOOGLETEST-DOWNLOAD\GOOGLETEST-PREFIX\SRC\GOOGLETEST-STAMP\DEBUG\GOOGLETEST-DOWNLOAD
G:\CROSSPLATFORMSOCKETS\BULID\GOOGLETEST-DOWNLOAD\GOOGLETEST-PREFIX\SRC\GOOGLETEST-STAMP\DEBUG\GOOGLETEST-PATCH
G:\CROSSPLATFORMSOCKETS\BULID\GOOGLETEST-DOWNLOAD\GOOGLETEST-PREFIX\SRC\GOOGLETEST-STAMP\DEBUG\GOOGLETEST-CONFIGURE
G:\CROSSPLATFORMSOCKETS\BULID\GOOGLETEST-DOWNLOAD\GOOGLETEST-PREFIX\SRC\GOOGLETEST-STAMP\DEBUG\GOOGLETEST-BUILD
G:\CROSSPLATFORMSOCKETS\BULID\GOOGLETEST-DOWNLOAD\GOOGLETEST-PREFIX\SRC\GOOGLETEST-STAMP\DEBUG\GOOGLETEST-TEST
^G:\CROSSPLATFORMSOCKETS\BULID\GOOGLETEST-DOWNLOAD\CMAKELISTS.TXT
C:\PROGRAM FILES\CMAKE\SHARE\CMAKE-3.16\MODULES\CMAKEDETERMINESYSTEM.CMAKE
C:\PROGRAM FILES\CMAKE\SHARE\CMAKE-3.16\MODULES\CMAKEGENERICSYSTEM.CMAKE
C:\PROGRAM FILES\CMAKE\SHARE\CMAKE-3.16\MODULES\CMAKEINITIALIZECONFIGS.CMAKE
C:\PROGRAM FILES\CMAKE\SHARE\CMAKE-3.16\MODULES\CMAKESYSTEM.CMAKE.IN
C:\PROGRAM FILES\CMAKE\SHARE\CMAKE-3.16\MODULES\CMAKESYSTEMSPECIFICINFORMATION.CMAKE
C:\PROGRAM FILES\CMAKE\SHARE\CMAKE-3.16\MODULES\CMAKESYSTEMSPECIFICINITIALIZE.CMAKE
C:\PROGRAM FILES\CMAKE\SHARE\CMAKE-3.16\MODULES\EXTERNALPROJECT.CMAKE
C:\PROGRAM FILES\CMAKE\SHARE\CMAKE-3.16\MODULES\FINDGIT.CMAKE
C:\PROGRAM FILES\CMAKE\SHARE\CMAKE-3.16\MODULES\FINDPACKAGEHANDLESTANDARDARGS.CMAKE
C:\PROGRAM FILES\CMAKE\SHARE\CMAKE-3.16\MODULES\FINDPACKAGEMESSAGE.CMAKE
C:\PROGRAM FILES\CMAKE\SHARE\CMAKE-3.16\MODULES\PLATFORM\WINDOWS.CMAKE
C:\PROGRAM FILES\CMAKE\SHARE\CMAKE-3.16\MODULES\PLATFORM\WINDOWSPATHS.CMAKE
C:\PROGRAM FILES\CMAKE\SHARE\CMAKE-3.16\MODULES\REPOSITORYINFO.TXT.IN
G:\CROSSPLATFORMSOCKETS\BULID\GOOGLETEST-DOWNLOAD\CMAKEFILES\3.16.0-RC3\CMAKESYSTEM.CMAKE
G:\CROSSPLATFORMSOCKETS\BULID\GOOGLETEST-DOWNLOAD\GOOGLETEST-PREFIX\TMP\GOOGLETEST-CFGCMD.TXT.IN
^G:\CROSSPLATFORMSOCKETS\BULID\GOOGLETEST-DOWNLOAD\CMAKEFILES\A0B326E4051E1F16B6C3C0DAEB18C16E\GOOGLETEST-UPDATE.RULE
G:\CROSSPLATFORMSOCKETS\BULID\GOOGLETEST-DOWNLOAD\GOOGLETEST-PREFIX\SRC\GOOGLETEST-STAMP\DEBUG\GOOGLETEST-DOWNLOAD
^G:\CROSSPLATFORMSOCKETS\BULID\GOOGLETEST-DOWNLOAD\CMAKEFILES\5B27ACB853D4E088EFDEC60A18CDCB89\GOOGLETEST.RULE
G:\CROSSPLATFORMSOCKETS\BULID\GOOGLETEST-DOWNLOAD\CMAKEFILES\DEBUG\GOOGLETEST-COMPLETE
